offer_id,mail_business_name,business_name,image,region,primary_category,keywords,trading_phone,trading_address,suburb,state,postcode,website,feature,offer_1,code_1,cond_1,offer_2,code_2,cond_2,offer_3,code_3,cond_3,offer_4,code_4,cond_4,offer_5,code_5,cond_5,gen_cond,short_description,description,edited
1,ABC Kid's Paradise,ABC Kid's Paradise,,Illwara,Shopping,",24hr,Accessories,adventure,apparell,Auto Parts,auto repairs,away,Baby,Batteries,Beachside,beauty,Beef,Bicycles,Bike riding,boards,body,Bread,Burgers,Burritos,Café,Cakes,camping,Car repairs,Car Wash,Chairs,Chicken,chips,clean,Cleaning,clothes,clothing,Coffee,colouring,Cream,curry,Custom,custom cake design,Cuts,cycling,Delicatessen,desserts,DIY,Donuts,Drinks,dry,Dyno,earrings,Enchiladas,engraving,face,fish,Fishing,Fitness,Flowers,Food,Fresh,Frozen Yoghurt,Fruit,Funerals,furniture,Garden,Gym,Hair,hair cut,Health food,Healthy,Helmets,hire,homeware,Hot chocolate,Household,Ice,Ice-cream,Italian,key cutting,Kids,kitchenware,Landscaping,Loaf,manicure,meat rolls,Medicine,mens,Milkshakes,Mobiles,mountain bikes,Muffins,Mussels,Nails,necklaces,Nets,Paint,Pasta,Performance,Pizza,Plants,Pork,Prawns,Prescription drugs,presents,Protective films,Renovation,Repair,Repco servicing,ribs,Riding gear,Rings,Rods,rollerblades,Rolls,Salads,Sandwiches,seafood,service,shoes,skateboards,skiing,snacks,Sofas,sports,steaks,styling,suits,",9453 2368,"The Centre, Starkey Street",Forestville,NSW,2087,www.test.com,15% off,15% off childrens shoes and clothing,,,10% off in-store,,,,,,,,,,,,"Excludes specials, gift cards and other offers","Lorem ipsum dolor sit amet, consectetur adipiscing elit. Sed mollis, enim ac blandit porttitor, libero erat eleifend felis, id tincidunt dui lectus vel dolor.","Donec quis commodo quam. Pellentesque urna ante, fermentum non nunc sit amet, volutpat consectetur tortor. Duis dictum neque mi, vitae facilisis nunc malesuada id. Phasellus tortor libero, suscipit vitae ex non, faucibus faucibus leo. Curabitur interdum pretium ex, at sodales dolor fringilla non. Aliquam ut ex diam. Pellentesque pulvinar bibendum risus, vel fringilla justo pulvinar quis. Nulla iaculis sapien in lectus elementum, non viverra arcu ultricies. In hac habitasse platea dictumst. Suspendisse tincidunt sem massa, nec laoreet elit eleifend ut.",0
2,ABC Kid's Paradise1,ABC Kid's Paradise,,Central Coast,Shopping,"clothing,Kids,toys",9453 2368,"The Centre, Starkey Street",Forestville,NSW,2087,,15% off,15% off childrens shoes and clothing,,,10% off in-store,,,,,,,,,,,,"Excludes specials, gift cards and other offers",,,1
3,Accessories Kingdom,Accessories Kingdom,,Blue Mountains,Shopping,"Accessories,Mobiles,Repair",9939 3200,"Outside Target, Warringah Mall",Brookvale,NSW,2100,,10% off,10% off repairs,,,20% off Accessories,,,,,,,,,,,,"Excludes specials, gift cards and other offers",,,0
4,Aloha Surf Manly2,Aloha Surf Manly,,South Coast,Sport & Leisure Retail,"boards,Surfing,wax",9977 3777,44 Pittwater Road,Manly,NSW,2095,,10% off,10% off storewide,,,,,,,,,,,,,,,"Excludes specials, gift cards and other offers",,,1
5,Anytime Fitness Brookvale,Anytime Fitness Brookvale,,Mid North Coast,Health & Beauty,"24hr,Fitness,Gym",9907 1171,Warringah Mall,Brookvale,NSW,2100,,10% off,10% off new 12 month+ memberships,,,50% off Joining Fee,,,,,,,,,,,,"Excludes specials, gift cards and other offers",,,0
6,Anytime Fitness Dee Why3,Anytime Fitness Dee Why,,Liverpool & Fairfield,Health & Beauty,"24hr,Fitness,Gym",9984 8026,23 Oaks Ave,Dee Why,NSW,2099,,10% off,10% off new 12 month+ memberships,,,50% off Joining Fee,,,,,,,,,,,,"Excludes specials, gift cards and other offers",,,1
7,Anytime Fitness Frenchs Forest,Anytime Fitness Frenchs Forest,,Shoalhaven,Health & Beauty,"24hr,Fitness,Gym",9451 0329,5 Skyline Place,Frenchs Forest,NSW,2086,,10% off,10% off new 12 month+ memberships,,,50% off Joining Fee,,,,,,,,,,,,"Excludes specials, gift cards and other offers",,,0
8,Anytime Fitness Manly,Anytime Fitness Manly,,Macarthur,Health & Beauty,"24hr,Fitness,Gym",9976 3607,2 Pittwater Road,Manly,NSW,2095,,10% off,10% off new 12 month+ memberships,,,50% off Joining Fee,,,,,,,,,,,,"Excludes specials, gift cards and other offers",,,0
9,Artis Hairdressing,Artis Hairdressing,,Mildura,Health & Beauty,"colouring,hair cut,styling",9976 6588,North Steyne,Manly,NSW,2095,,20% off,20% off hair services,,,,,,,,,,,,,,,"Excludes specials, gift cards and other offers.",,,0
10,Artistry Hair Professionals,Artistry Hair Professionals,,St. George & The Shire,Health & Beauty,"colouring,hair cut,styling",9949 9699,Stockland Balgowlah,Balgowlah,NSW,2093,,15% off,15% off hair services,,,,,,,,,,,,,,,"Excludes specials, gift cards and other offers.",,,0
11,Avanti Plus Narrabeen,Avanti Plus Narrabeen,,grrd,Sport & Leisure Retail,"cycling,fitness,sports",9913 1881,1324 Pittwater Rd,Narrabeen,NSW,2101,,10% off,"10% off bikes, parts and services",,,,,,,,,,,,,,,"Excludes specials, gift cards and other offers",,,0
12,Bakers Delight Allambie Heights,Bakers Delight Allambie Heights,,Northern Beaches,Grocery,"Bread,Fresh,Loaf,Rolls",9453 1222,151 Allambie Rd,Allambie Heights,NSW,2100,,Free Loaf,Free traditional block loaf with any purchase over $7,,,,,,,,,,,,,,,"Excludes specials, gift cards and other offers.",,,0
13,Bakers Delight Balgowlah,Bakers Delight Balgowlah,,,Grocery,"Bread,Fresh,Loaf,Rolls",9949 7442,Stockland Balgowlah,Balgowlah,NSW,2093,,Free Loaf,Free traditional block loaf with any purchase over $7,,,,,,,,,,,,,,,"Excludes specials, gift cards and other offers.",,,0
14,Bakers Delight Brookvale,Bakers Delight Brookvale,,,Grocery,"Bread,Fresh,Loaf,Rolls",9907 1304,Warringah Mall,Brookvale,NSW,2100,,Free Loaf,Free traditional block loaf with any purchase over $7,,,,,,,,,,,,,,,"Excludes specials, gift cards and other offers.",,,0
15,Bakers Delight Dee Why,Bakers Delight Dee Why,,,Grocery,"Bread,Fresh,Loaf,Rolls",9984 9314,Dee Why Grand,Dee Why,NSW,2099,,Free Loaf,Free traditional block loaf with any purchase over $7,,,,,,,,,,,,,,,"Excludes specials, gift cards and other offers.",,,0
16,Bakers Delight Narrabeen,Bakers Delight Narrabeen,,,Grocery,"Bread,Fresh,Loaf,Rolls",9913 3965,1348 Pittwater Road,Narrabeen,NSW,2101,,Free Loaf,Free traditional block loaf with any purchase over $7,,,,,,,,,,,,,,,"Excludes specials, gift cards and other offers.",,,0
17,Balcony In Bloom,Balcony In Bloom,,,Home & Garden,"Flowers,Garden,Landscaping,Plants",9905 3382,10 Green Street,Brookvale,NSW,2100,,15% off,15% off plants,,,,,,,,,,,,,,,"Excludes specials, gift cards and other offers",,,0
18,Battery World Brookvale,Battery World Brookvale,,,Auto,"Auto Parts,Batteries,Upgrades",9939 2439,5 Mitchel Road,Brookvale,NSW,2100,,13% off,13% off RRP,,,,,,,,,,,,,,,"Excludes specials, gift cards and other offers",,,0
19,Blends Café & Restaurant,Blends Café & Restaurant,,,Cafe & Takeaway,"Coffee,Food",9452 6211,Forestway Shopping Centre,Frenchs forest,NSW,2086,,15% off,15% off total bill,,,,,,,,,,,,,,,"Excludes specials, gift cards and other offers.",,,0
20,Brook's Pharmacy,Brook's Pharmacy,,,Health & Beauty,"Medicine,Prescription drugs",9905 3567,Freshwater Village Plaza,Freshwater,NSW,2096,,20% off,"20% off sunglasses, hats & sunscreen",,,10% off in-store,,,,,,,,,,,,"Excludes prescriptions, baby food, nappies, selected items, specials, gift cards and other offers",,,0
21,Buy 4 Baby Narrabeen,Buy 4 Baby Narrabeen,,,Shopping,"Baby,clothes,clothing,Kids,toys",9913 3000,1477 Pittwater Rd,Narrabeen,NSW,2101,,15% off,15% off storewide,,,,,,,,,,,,,,,"Excludes specials, gift cards and other offers",,,0
22,Casey's Toys Brookvale,Casey's Toys Brookvale,,,Shopping,",clothing,Kids,toys",9938 6533,Warringah Mall,Brookvale,NSW,2100,,10% off,"10% off in-store, including specials",,,,,,,,,,,,,,,"Excludes lay-bys, gift vouchers and other offers.",,,0
23,Casey's Toys Manly Vale,Casey's Toys Manly Vale,,,Shopping,",Accessories,kids,Mobiles,Repair,toys",9907 8900,216 Condamine St,Manly Vale,NSW,2093,,10% off,"10% off in-store, including specials",,,,,,,,,,,,,,,"Excludes lay-bys, gift vouchers and other offers.",,,0
24,Clark Rubber Brookvale,Clark Rubber Brookvale,,,Home & Garden,"boards,DIY,Renovation,Surfing,tools,wax",9907 3377,59 Winbourne Rd,Brookvale,NSW,2100,,15% off,15% off in-store purchases,,,,,,,,,,,,,,,"Excludes Pools, specials, gift cards and other offers",,,0
25,Coco Noir Marche,Coco Noir Marche,,,Cafe & Takeaway,"24hr,Coffee,Fitness,Food,Gym",,Warringah Mall,Brookvale,NSW,2100,,15% off,15% off total bill,,,,,,,,,,,,,,,"Excludes specials, gift cards and other offers.",,,0
26,Colortile Brookvale,Colortile Brookvale,,,Home & Garden,"24hr,DIY,Fitness,Gym,Renovation,tiling",9905 9699,271 Harbourd Road,Dee Why,NSW,2099,,20% off,"20% off RRP of tiles, tapware & Timberline vanities",,,,,,,,,,,,,,,"Excludes specials, gift cards and other offers.",,,0
27,Cordony Hair,Cordony Hair,,,Health & Beauty,"24hr,Colouring,Cuts,Fitness,Gym,Hair",9905 7362,"Shop 342, Lvl 1, Warringah Mall",Brookvale,NSW,2100,,20% off,20% off hairdressing Mon - Fri,,,,,,,,,,,,,,,"Excludes specials, gift cards and other offers",,,0
28,Crystal Car Wash Brookvale,Crystal Car Wash Brookvale,,,Auto,"24hr,Café,Car Wash,Cleaning,Fitness,Gym",9907 2666,559 Pittwater Rd,Brookvale,NSW,2100,,20% off,20% off all full price services,,,,,,,,,,,,,,,"Excludes specials, gift cards and other offers",,,0
29,Curly Meats,Curly Meats,,,Grocery,"Beef,Chicken,colouring,Fresh,hair cut,Pork,styling",9905 1891,142 Pitt Road,North Curl Curl,NSW,2099,,10% off,10% off Meat purchases,,,,,,,,,,,,,,,"Excludes specials, gift cards and other offers.",,,0
30,De Vita Piccolo Dee Why,De Vita Piccolo Dee Why,,,Restaurants,"colouring,hair cut,Italian,Pasta,Pizza,styling",9982 3939,860 Pittwater Road,Dee Why,NSW,2099,,20% off,20% off the bill,,Limit $30 discount,,,,,,,,,,,,,"Excludes specials, gift cards and other offers",,,0
31,De Vita Manly,De Vita Manly,,,Restaurants,"cycling,fitness,Italian,Pasta,Pizza,sports",8068 6751,"4-8, Darley Road",Manly,NSW,2095,,20% off,20% off the bill,,Limit $30 discount,,,,,,,,,,,,,"Excludes specials, gift cards and other offers",,,0
32,Dee Loft Thai,Dee Loft Thai,,,Restaurants,",Bread,curry,Fresh,Loaf,Rolls,Thai food",9981 4408,"6, The Strand",Dee Why,NSW,2099,,15% off,15% off total bill,,,,,,,,,,,,,,,"Excludes all public holidays, special event menus', gift cards, specials and other offers.",,,0
33,Dee Why Fresh Seafood,Dee Why Fresh Seafood,,,Grocery,"Bread,fish,Fresh,Loaf,Rolls,seafood",9982 7001,Dee Why Market Place,Dee Why,NSW,2099,,10% off,10% off in-store,,,,,,,,,,,,,,,"Excludes specials, gift cards and other offers.",,,0
34,Domino's Dee Why,Domino's Dee Why,,,Cafe & Takeaway,"Bread,Drinks,Fresh,Loaf,Pizza,Rolls,Takeaway",9942 1844,830 Pittwater Road,Dee Why,NSW,2099,,Large Pizz,Trad lge pizza pickup from $6.95 Code: 821670,,,Trad lge pizza delivered from $10.95 Code: 407058,Minimum delivery $22,,,,,,,,,,,"Extras may apply, excludes specials, gift cards and other offers",,,0
35,Domino's Manly,Domino's Manly,,,Cafe & Takeaway,"Bread,Drinks,Fresh,Loaf,Pizza,Rolls,Takeaway",8962 3077,41 Sydney Road,Manly,NSW,2095,,Large Pizz,Trad lge pizza pickup from $6.95 Code: 821670,,,Trad lge pizza delivered from $10.95 Code: 407058,Minimum delivery $22,,,,,,,,,,,"Extras may apply, excludes specials, gift cards and other offers",,,0
36,Domino's Manly Vale,Domino's Manly Vale,,,Cafe & Takeaway,"Bread,Drinks,Fresh,Loaf,Pizza,Rolls,Takeaway",8229 2000,327 Condamine Street,Manly Vale,NSW,2093,,Large Pizz,Trad lge pizza pickup from $6.95 Code: 821670,,,Trad lge pizza delivered from $10.95 Code: 407058,Minimum delivery $22,,,,,,,,,,,"Extras may apply, excludes specials, gift cards and other offers",,,0
37,Domino's Narrabeen,Domino's Narrabeen,,,Cafe & Takeaway,"Drinks,Flowers,Garden,Landscaping,Pizza,Plants,Takeaway",9999 9055,57 Waterloo St,Narrabeen,NSW,2101,,Large Pizz,Trad lge pizza pickup from $6.95 Code: 821670,,,Trad lge pizza delivered from $10.95 Code: 407058,Minimum delivery $22,,,,,,,,,,,"Extras may apply, excludes specials, gift cards and other offers",,,0
38,Donut King Warringah Mall,Donut King Warringah Mall,,,Cafe & Takeaway,"Auto Parts,Batteries,Donuts,Ice-cream,Milkshakes,Upgrades",9907 4788,Warringah Mall,Brookvale,NSW,2100,,3 for 2,Buy 2 donuts get 1 free,,Free donut to same or lesser value as lowest cost.,,,,,,,,,,,,,"Excludes specials, gift cards and other offers.",,,0
39,Dracakis Mosman,Dracakis Mosman,,,Shopping,"Coffee,earrings,Food,necklaces,Rings",9969 4152,567 Military Road,Mosman,NSW,2088,,$100 off,$100 off selected purchases over $500,,,,,,,,,,,,,,,See dracakis.com.au/terms-of-service for full terms and conditions,,,0
39,,,,,,,1111111,demoadd1,Randwick,NSW,2033,,,,,,,,,,,,,,,,,,,,,
40,Dracakis Warringah Mall,Dracakis Warringah Mall,,,Shopping,"earrings,Medicine,necklaces,Prescription drugs,Rings",9905 4344,Warringah Mall,Brookvale,NSW,2100,,$100 off,$100 off selected purchases over $500,,,,,,,,,,,,,,,See dracakis.com.au/terms-of-service for full terms and conditions,,,0
41,Espresso Head,Espresso Head,,,Cafe & Takeaway,"Baby,clothes,Coffee,kids,Muffins,Takeaway,toys",9982 4700,"Shop 1, 11-13 Oaks Ave",Dee Why,NSW,2099,,Coffee + M,Regular coffee + muffin for $5.50,,,,,,,,,,,,,,,"Excludes specials, gift cards and other offers",,,0
42,First Choice Quality Meats Warringah Mall,First Choice Quality Meats Warringah Mall,,,Grocery,",Beef,Chicken,Fresh,kids,Pork,toys",9905 2733,Warringah Mall,Brookvale,NSW,2100,,10% off,10% off in-store purchases,,,,,,,,,,,,,,,"Excludes specials, gift cards and other offers.",,,0
43,Fish Outta Water Tackleworld,Fish Outta Water Tackleworld,,,Sport & Leisure Retail,",Fishing,kids,Nets,Rods,Tackle,toys",9949 9488,263 Condamine St,Manly Vale,NSW,2093,,20% off,"20% off fishing line, clothing & Terminal tackle",,,,,,,,,,,,,,,"Excludes specials, gift cards and other offers",,,0
44,Forestville Fresh Fruit & Veg,Forestville Fresh Fruit & Veg,,,Grocery,"DIY,Fresh,Fruit,Renovation,tools,Veg",9451 6979,"The Centre, Starkey Street",Forestville,NSW,2087,,10% off,10% off in-store purchases,,,,,,,,,,,,,,,"Excludes specials, gift cards and other offers.",,,0
45,Four Olives Deli Café,Four Olives Deli Café,,,Cafe & Takeaway,"Coffee,Delicatessen,Food",9977 4611,4 Darley Road,Manly,NSW,2095,,15% off,15% off dine in drinks and meals bill,,,10% off deli products,,,,,,,,,,,,"Excludes specials, gift cards and other offers.",,,0
46,Four Seasons Garden Landscape Centre,Four Seasons Garden Landscape Centre,,,Home & Garden,"Chairs,DIY,Garden,Renovation,Tables,tiling",9450 1606,200 Forest Way,Belrose,NSW,2085,,20% off,20% off pots,,,15% off plants,,,,,,,,,,,,"Excludes plastic pits, seedlings, potted colour, herbs, specials and other offers.",,,0
47,Freedom Motorcycles,Freedom Motorcycles,,,Auto,"auto parts,Colouring,Cuts,Hair,Helmets,Riding gear",9938 4777,Unit 3/40 Roger St,Brookvale,NSW,2100,,15% off,"15% off clothing, accessories and parts",,,,,,,,,,,,,,,"Excludes specials, gift cards and other offers",,,0
48,Freelance Shoes  Manly,Freelance Shoes  Manly,,,Shopping,"Café,Car Wash,Cleaning,kids,mens,shoes,womens",9976 2399,Manly Corso,Manly,NSW,2095,,15% off,15% off all full price items,,,,,,,,,,,,,,,"Excludes specials, gift cards and other offers",,,0
49,Freelance ShoesWarringah,Freelance ShoesWarringah,,,Shopping,"Beef,Chicken,Fresh,kids,mens,Pork,shoes,womens",9938 3600,Warringah  Mall,Brookvale,NSW,2100,,15% off,15% off all full price items,,,,,,,,,,,,,,,"Excludes specials, gift cards and other offers",,,0
50,Gloria Jeans Dee Why,Gloria Jeans Dee Why,,,Cafe & Takeaway,"Coffee,Italian,Muffins,Pasta,Pizza,Takeaway",9972 3500,"Village Plaza, 26 Howard Ave",Dee Why,NSW,2099,,50% off,50% off 2nd beverage,,Up to same or lesser value.,,,,,,,,,,,,,"Excludes bottles, cans, specials and other offers",,,0
51,Gloria Jeans Manly Wharf,Gloria Jeans Manly Wharf,,,Cafe & Takeaway,"Coffee,Italian,Muffins,Pasta,Pizza,Takeaway",9977 6964,Manly Wharf,Manly,NSW,2095,,50% off,50% off 2nd beverage,,Up to same or lesser value.,,,,,,,,,,,,,"Excludes bottles, cans, specials and other offers",,,0
52,Gloria Jeans Narrabeen,Gloria Jeans Narrabeen,,,Cafe & Takeaway,",Coffee,curry,Hot chocolate,snacks,Thai food",9446 3980,1350 Pittwater Road,Narrabeen,NSW,2101,,50% off,50% off 2nd beverage,,Up to same or lesser value.,,,,,,,,,,,,,"Excludes bottles, cans, specials and other offers",,,0
53,Godfreys Dee Why,Godfreys Dee Why,,,Shopping,"cleaning,fish,fresh,Household,seafood,vacuum",9982 8970,669 Pittwater Rd,Dee Why,NSW,2099,,15% off,15% off RRP,,,,,,,,,,,,,,,"Excludes specials, gift cards and other offers",,,0
54,Hays Jewellers Manly,Hays Jewellers Manly,,,Shopping,"Drinks,earrings,necklaces,Pizza,Rings,Takeaway",9977 6419,Manly Corso,Manly,NSW,2095,,20% off,10% off Swarovski and Thomas Sabo,,,20% off jewellery & watches,,,,,,,,,,,,"Excludes specials, gift cards and other offers",,,0
55,Healthy Life Balgowlah,Healthy Life Balgowlah,,,Shopping,"Drinks,Health food,Pizza,supplements,Takeaway,Vitamins",9907 6182,Stocklands Balgowlah,Balgowlah,NSW,2093,,15% off,15% off vitamins,,,,,,,,,,,,,,,"Excludes specials, gift cards and other offers",,,0
56,Honey Body Salon Manly,Honey Body Salon Manly,,,Health & Beauty,"colouring,Drinks,hair cut,Pizza,styling,Takeaway",9977 0349,18 Whistler Street,Manly,NSW,2095,,15% off,15% off services,,,,,,,,,,,,,,,"Excludes specials, gift cards and other offers",,,0
57,Illie Home & Gift,Illie Home & Gift,,,Home & Garden,"Drinks,furniture,homeware,kitchenware,Pizza,Takeaway",8002 1848,1329 Pittwater Road,Narrabeen,NSW,2101,,15% off,15% off in-store purchases,,,,,,,,,,,,,,,"Excludes furniture, specials, gift cards and other offers",,,0
58,Karl Azzi Hairdressers,Karl Azzi Hairdressers,,,Health & Beauty,"colouring,Donuts,hair cut,Ice-cream,Milkshakes,styling",9905 4545,Warringah Mall,Brookvale,NSW,2100,,15% off,15% off hair services,,,,,,,,,,,,,,,"Excludes specials, gift cards and other offers.",,,0
59,Karl Azzi Hairdressers,Karl Azzi Hairdressers,,,Health & Beauty,"colouring,earrings,hair cut,necklaces,Rings,styling",9905 4545,Warringah Mall,Brookvale,NSW,2100,,10% off,10% off hairdressing,,,,,,,,,,,,,,,Excludes specials and other offers,,,0
60,Lakeside Thai Restaurant,Lakeside Thai Restaurant,,,Restaurants,",curry,earrings,necklaces,Rings,Thai food",9970 6766,1425 Pittwater Rd,Narrabeen,NSW,2101,,15% off,15% off total dine in or takeaway bill,,Not including delivery,,,,,,,,,,,,,"Excludes specials, gift cards and other offers",,,0
61,Larry Adler Ski & Outdoor,Larry Adler Ski & Outdoor,,,Sport & Leisure Retail,"adventure,camping,Coffee,Muffins,skiing,Takeaway",9971 8711,1024 Pittwater Rd,Collaroy,NSW,2097,,20% off,20% off products in-store or using promocode 'clubvip' at larryadler.com,,,,,,,,,,,,,,,"Excludes Strolz and hire. Excludes specials, gift cards and other offers.",,,0
62,Lawrence Dry Cleaners Balgowlah,Lawrence Dry Cleaners Balgowlah,,,Shopping,"Beef,Chicken,clean,dry,Fresh,Pork,suits",9949 1042,Stocklands Balgowlah,Balgowlah,NSW,2093,,15% off,15% off dry cleaning,,,,,,,,,,,,,,,"Applies to pre-paid general garments only. Excludes specials, gift cards and other offers.",,,0
63,Lawrence Dry Cleaners Belrose,Lawrence Dry Cleaners Belrose,,,Shopping,"clean,dry,Fishing,Nets,Rods,suits,Tackle",9319 6000,Glenrose Shopping Centre,Belrose,NSW,2085,,15% off,15% off dry cleaning,,,,,,,,,,,,,,,"Applies to pre-paid general garments only. Excludes specials, gift cards and other offers.",,,0
64,Lawrence Dry Cleaners Frenchs Forest,Lawrence Dry Cleaners Frenchs Forest,,,Shopping,"clean,dry,Fresh,Fruit,suits,Veg",9451 9485,Forestway Shopping Centre,Frenchs Forest,NSW,2086,,15% off,15% off dry cleaning,,,,,,,,,,,,,,,"Applies to pre-paid general garments only. Excludes specials, gift cards and other offers.",,,0
65,Lawrence Dry Cleaners Warringah,Lawrence Dry Cleaners Warringah,,,Shopping,"clean,Coffee,Delicatessen,dry,suits",9905 4464,Warringah Mall,Brookvale,NSW,2100,,15% off,15% off dry cleaning,,,,,,,,,,,,,,,"Applies to pre-paid general garments only. Excludes specials, gift cards and other offers.",,,0
66,Long Reef Surf Collaroy,Long Reef Surf Collaroy,,,Sport & Leisure Retail,"apparell,Chairs,fitness,Garden,Surfboards,Tables",9982 4829,1012 Pittwater Road,Collaroy,NSW,2097,,12% off,12% off RRP,,,,,,,,,,,,,,,"Excludes specials, gift cards and other offers",,,0
67,Mad Mex Warringah Mall,Mad Mex Warringah Mall,,,Cafe & Takeaway,"auto parts,Burritos,Enchiladas,Helmets,Riding gear,Tortillas",9939 3182,Warringah Mall,Brookvale,NSW,2100,,20% off,20% off any main meal,,,,,,,,,,,,,,,"Excludes Guacamole, specials, gift cards and other offers",,,0
68,Manly Bike Tours,Manly Bike Tours,,,Leisure & Adventure,"adventure,Bike riding,fitness,kids,mens,shoes,womens",8005 7368,54 West Esplanade,Manly,NSW,2095,,20% off,20% off bike Hire,,,,,,,,,,,,,,,"Excludes specials, gift cards and other offers",,,0
69,Manly Cycles,Manly Cycles,,,Sport & Leisure Retail,"Bicycles,fitness,kids,mens,mountain bikes,shoes,womens",9977 1189,17 Sydney Road,Manly,NSW,2095,,10% off,"10% off bikes, parts, access & services",,,,,,,,,,,,,,,"Excludes S-Works products, specials, gift cards and other offers",,,0
70,Manly Surf School,Manly Surf School,,,Leisure & Adventure,"Coffee,Muffins,Surf Lessons,Takeaway",9932 7000,93-95 Manly Beach,Manly,NSW,2095,,$10 off,$10 off any surf package,,Limit one per card,,,,,,,,,,,,,"Excludes specials, gift cards and other offers",,,0
71,Manly Surfboards,Manly Surfboards,,,Leisure & Adventure,"Coffee,fitness,hire,Muffins,Surfing,Takeaway",9976 0591,"Shop 3, North Steyne",Manly,NSW,2095,,15% off,15% off,,,"1 free additional hour with any 1,2 or 3 hour board or SUP hire",,,,,,,,,,,,"Excludes specials, gift cards and other offers.",,,0
72,Michel's Patisserie Dee Why,Michel's Patisserie Dee Why,,,Cafe & Takeaway,"Cakes,Coffee,custom cake design,Hot chocolate,snacks",9971 8797,Dee Why Grand,Dee Why,NSW,2099,,50% off,50% off 2nd coffee or Cake of the day,,,50% off 2nd whole cake,"Up to same value, in stock only.",,,,,,,,,,,"Excludes specials, gift cards and other offers.",,,0
73,Midas Brookvale,Midas Brookvale,,,Auto,"Car repairs,cleaning,Household,service,upgrades,vacuum",9905 0315,750 Pittwater Road,Brookvale,NSW,2100,,$50 off,$50 off log book service,,,$50 off brake pad service,,,,,,,,,,,,"Excludes specials, gift cards and other offers",,,0
74,Mister Minit Balgowlah,Mister Minit Balgowlah,,,Home & Garden,"earrings,engraving,key cutting,necklaces,repair,Rings,Shoes",9949 5150,Stockland Balgowlah,Balgowlah,NSW,2093,,20% off,20% off services,,,,,,,,,,,,,,,"Excludes combos, transponders, remotes, specials, gift cards and other offers",,,0
75,Moo Gourmet Burgers Manly,Moo Gourmet Burgers Manly,,,Cafe & Takeaway,"Burgers,chips,Health food,supplements,takeaway,Vitamins",9976 0948,33 South Steyne,Manly,NSW,2095,,15% off,15% off total bill,,,,,,,,,,,,,,,"Excludes specials, gift cards and other offers",,,0
76,Mortar + Pestle,Mortar + Pestle,,,Restaurants,",colouring,curry,hair cut,styling,Thai food",9977 1112,2 Darley Road,Manly,NSW,2095,,15% off,15% off total dine in bill,,Bookings required,,,,,,,,,,,,,"Excludes delivery, public holidays, Xmas & NYE, Valentines Day, Mothers & Fathers Days, special events, specials, gift cards and other offers.",,,0
77,Mr Singh's Indian Restaurant,Mr Singh's Indian Restaurant,,,Restaurants,"away,curry,furniture,homeware,kitchenware,take",9972 0972,1135 Pittwater Road,Collaroy,NSW,2097,,20% off,20% off dine in meal bill,,,15% off takeaway bill,Excludes delivery,,,,,,,,,,,"Excludes specials, gift cards and other offers",,,0
78,Muffin Break Warringah Mall,Muffin Break Warringah Mall,,,Cafe & Takeaway,"Coffee,colouring,hair cut,Milkshakes,Muffins,styling",9939 0688,Warringah Mall,Brookvale,NSW,2100,,50% off,50% off 2nd muffin,,,,,,,,,,,,,,,"Excludes specials, gift cards and other offers.",,,0
79,Nandos Manly,Nandos Manly,,,Restaurants,"burgers,chicken,colouring,hair cut,styling,wraps",9977 0108,East Esplanade,Manly,NSW,2095,,20% off,20% off total bill,,,,,,,,,,,,,,,"Limit of 1 purchase per card per day. Excludes specials, gift cards and other offers.",,,0
80,Oporto Dee Why,Oporto Dee Why,,,Cafe & Takeaway,",Burgers,Chicken,curry,Thai food,Wraps",9982 8883,900 Pittwater Road,Dee why,NSW,2099,,10% off,10% off order,,,,,,,,,,,,,,,"Excludes specials, gift cards and other offers.",,,0
81,Oporto Warringah Mall,Oporto Warringah Mall,,,Cafe & Takeaway,"adventure,Burgers,camping,Chicken,skiing,Wraps",9905 0467,Warringah Mall,Brookvale,NSW,2100,,10% off,10% off order,,,,,,,,,,,,,,,"Excludes specials, gift cards and other offers.",,,0
82,Outdoor Shack Collaroy,Outdoor Shack Collaroy,,,Sport & Leisure Retail,"Adventure,Camping,clean,dry,suits,Travel",9981 6933,1131 Pittwater Rd,Collaroy,NSW,2097,,10% off,10% off storewide,,,,,,,,,,,,,,,"Excludes kayaks, canoes, refrigeration, specials, gift cards and other offers.",,,0
83,Oz Nails Dee Why,Oz Nails Dee Why,,,Health & Beauty,"beauty,clean,dry,manicure,Nails,suits",,683 Pittwater Road,Dee Why,NSW,2099,,$5 off,$5 off any purchase over $30,,,,,,,,,,,,,,,"Excludes specials, gift cards and other offers",,,0
84,Oz Nails Forestway,Oz Nails Forestway,,,Health & Beauty,"beauty,clean,dry,manicure,Nails,suits",,Forestway Shopping Centre,Frenchs Forest,NSW,2086,,$5 off,$5 off any purchase over $30,,,,,,,,,,,,,,,"Excludes specials, gift cards and other offers",,,0
85,Prime Quality Meats Balgowlah,Prime Quality Meats Balgowlah,,,Grocery,"Beef,Chicken,clean,dry,Fresh,Pork,suits",9949 2955,"The Village, 197-215 Condamine Street",Balgowlah,NSW,2093,,10% off,10% off in-store purchases,,,,,,,,,,,,,,,"Excludes specials, gift cards and other offers.",,,0
86,Prime Quality Meats Dee Why,Prime Quality Meats Dee Why,,,Grocery,"apparell,Beef,Chicken,fitness,Fresh,Pork,Surfboards",9981 1420,Dee Why Grand,Dee Why,NSW,2099,,10% off,10% off in-store purchases,,,,,,,,,,,,,,,"Excludes specials, gift cards and other offers.",,,0
87,Pro Kayaks Narrabeen,Pro Kayaks Narrabeen,,,Leisure & Adventure,"adventure,Burritos,Enchiladas,sports,Tortillas,Water",9970 7081,11 Narrabeen St,Narrabeen,NSW,2101,,2nd hour F,"2nd hour free with any 1 hour hire of kayak, canoe, ski or SUP",,,2nd 30 minutes free on pedal boat hire,,,,,,,,,,,,"Exludes Public Holidays, specials, gift cards and other offers",,,0
88,Prodigy Dee Why,Prodigy Dee Why,,,Health & Beauty,"adventure,Bike riding,body,face,fitness,hair",9982 6364,Dee Why Grand,Dee Why,NSW,2099,,15% off,15% off hair & beauty services,,,,,,,,,,,,,,,"Excludes nails and laser treatment, specials, gift cards and other offers",,,0
89,Pucker Narrabeen,Pucker Narrabeen,,,Health & Beauty,"Bicycles,colouring,fitness,hair cut,mountain bikes,styling",9913 3478,1423 Pittwater Road,Narrabeen,NSW,2101,,15% off,15% off hair services,,,,,,,,,,,,,,,"Excludes specials, gift cards and other offers.",,,0
90,Repco Service Centre (Dr Car),Repco Service Centre (Dr Car),,,Auto,",auto repairs,Repco servicing,Surf Lessons",9975 1168,5 Cook St,Forestville,NSW,2087,,20% off,20% off standard log book service,,Limit $50 discount,,,,,,,,,,,,,"Excludes specials, gift cards and other offers.",,,0
91,Ribs & Rumps Manly,Ribs & Rumps Manly,,,Restaurants,"burgers,fitness,hire,ribs,steaks,Surfing",9977 3476,35 South Steyne,Manly,NSW,2095,,25% off,25% off total bill,,Limit $50 discount,,,,,,,,,,,,,"Standard conditions apply, excludes specials, gift cards and other offers",,,0
92,Rolln'Sizzle Manly,Rolln'Sizzle Manly,,,Cafe & Takeaway,"Burgers,Cakes,custom cake design,meat rolls",,10 Eustace Street,Manly,NSW,2095,,20% off,20% off rolls and wrap,,,,,,,,,,,,,,,"Excludes specials, gift cards and other offers.",,,0
93,Room Two Ten,Room Two Ten,,,Restaurants,"burgers,Car repairs,coffee,drinks,service,upgrades",9907 2506,14 Lawrence St,Freshwater,NSW,2096,,20% off,20% off meals,,,,,,,,,,,,,,,"Excludes specials, gift cards and other offers",,,0
94,Royal Copenhagen Manly Corso,Royal Copenhagen Manly Corso,,,Cafe & Takeaway,"Cream,desserts,engraving,Ice,key cutting,repair,Shoes",9977 8767,Manly Corso,Manly,NSW,2095,,50% off,50% off second ice-cream,,To same or lesser value. Limit of 2 redemptions per card per day.,,,,,,,,,,,,,"Excludes specials, gift cards and other offers.",,,0
95,Skater HQ Manly,Skater HQ Manly,,,Leisure & Adventure,"Burgers,chips,hire,rollerblades,skateboards,takeaway",8667 7892,49 North Steyne,Manly,NSW,2095,,2nd hour f,2nd hour free on any rollerblade/bicycle or scooter hire,,Up to same value,,,,,,,,,,,,,"Excludes specials, gift cards and other offers.",,,0
96,Solartint Brookvale,Solartint Brookvale,,,Auto,",curry,Custom,Protective films,Thai food,UV Tinting",9905 6464,52 Windbourne Road,Brookvale,NSW,2100,,15% off,15% off RRP,,,,,,,,,,,,,,,"Excludes specials, gift cards and other offers",,,0
97,Star Car Wash Manly,Star Car Wash Manly,,,Auto,"away,Car Wash,Cleaning,curry,take,Waxing",9977 0422,165 Pittwater Road,Manly,NSW,2095,,20% off,20% off car wash,,,,,,,,,,,,,,,"Excludes express wash, specials, gift cards and other offers",,,0
98,Subway Brookvale,Subway Brookvale,,,Cafe & Takeaway,"Coffee,Drinks,Milkshakes,Muffins,Sandwiches,Wraps",9939 8433,34 Winbourne Rd,Brookvale,NSW,2100,,50% off,50% off second Sub,,Applies to equal or lesser value Sub. Limit of 1 offer per customer per day. Additional costs for extras. Subway is a registered trademark of Subway IP Inc.,,,,,,,,,,,,,"Excludes specials, gift cards and other offers.",,,0
99,Subway Forestway,Subway Forestway,,,Cafe & Takeaway,"burgers,chicken,Drinks,Sandwiches,wraps",9975 2696,Forestway Shopping Centre,Frenchs Forest,NSW,2086,,50% off,50% off second Sub,,Applies to equal or lesser value Sub. Limit of 1 offer per customer per day. Additional costs for extras. Subway is a registered trademark of Subway IP Inc.,,,,,,,,,,,,,"Excludes specials, gift cards and other offers.",,,0
100,Subway Manly Wharf,Subway Manly Wharf,,,Cafe & Takeaway,"Burgers,Chicken,Drinks,Sandwiches,Wraps",9977 0533,East Esplanade,Manly,NSW,2095,,50% off,50% off 2nd Sub,,Applies to equal or lesser value Sub. Limit of 1 offer per customer per day. Additional costs for extras. Subway is a registered trademark of Subway IP Inc.,,,,,,,,,,,,,"Excludes specials, gift cards and other offers",,,0
101,Sumo Salad Warringah Mall,Sumo Salad Warringah Mall,,,Cafe & Takeaway,"Burgers,Chicken,Healthy,Salads,Wraps",9907 1953,Warringah Mall,Brookvale,NSW,2100,,50% off,50% off second express salad,,Up to same or lesser value.,,,,,,,,,,,,,"Excludes specials, gift cards and other offers.",,,0
102,Sunkissed Bar and Grill,Sunkissed Bar and Grill,,,Restaurants,"Adventure,Camping,drinks,seafood,steaks,Travel",9977 0999,49 North Steyne,Manly,NSW,2095,,15% off,15% off food,,,,,,,,,,,,,,,"Discount limit of $100 per visist. Excludes specials, gift cards and other offers.",,,0
103,Taubmans Manly Vale,Taubmans Manly Vale,,,Home & Garden,"beauty,DIY,manicure,Nails,Paint,Tools",9948 1505,206 Condamine Street,Manly Vale,NSW,2093,,15% off,"15% off Taubmans, Bristol and White Knight paint",,,,,,,,,,,,,,,"Excludes specials, gift cards and other offers",,,0
104,The Board Monkey,The Board Monkey,,,Restaurants,"Beachside,beauty,manicure,Nails,seafood,steaks",29998 9899,1304 Pittwater Road,Narrabeen,NSW,2101,,15% off,15% off bill for breakfast and lunch only,,"(Per table, until 5pm)",,,,,,,,,,,,,"Excludes specials, gift cards and other offers",,,0
105,The Outdoor Furniture Specialists Balgowlah,The Outdoor Furniture Specialists Balgowlah,,,Home & Garden,"Beef,Chairs,Chicken,Fresh,Furniture,Garden,Pork,Tables",9948 0855,204 Condamine Street,Balgowlah,NSW,2093,,15% off,15% off RRP,,,,,,,,,,,,,,,"Excludes specials, gift cards and other offers",,,0
106,Thrifty Link Hardware Dee why,Thrifty Link Hardware Dee why,,,Home & Garden,"Beef,Chicken,DIY,Fresh,Paint,Pork,Tools",9971 5745,846 Pittwater Road,Dee Why,NSW,2099,,10% off,10% off in-store purchases,,,,,,,,,,,,,,,"Excludes paint, power tools, specials, gift cards and other offers",,,0
107,Ultra Tune Brookvale,Ultra Tune Brookvale,,,Auto,"adventure,Dyno,Performance,sports,Upgrades,Water",9939 7422,13 Carter Road,Brookvale,NSW,2100,,15% off,15% off standard log book service,,,,,,,,,,,,,,,"Excludes specials, gift cards and other offers",,,0
108,Vast Interior Narrabeen,Vast Interior Narrabeen,,,Home & Garden,"body,Chairs,face,hair,Sofas,Tables",9913 3010,1327 Pittwater Road,Narrabeen,NSW,2101,,15% off,15% off RRP of furniture,,,,,,,,,,,,,,,"Excludes specials, gift cards and other offers.",,,0
109,Voyager Tennis Manly,Voyager Tennis Manly,,,Leisure & Adventure,"colouring,fitness,hair cut,sports,styling,tennis",9939 1931,Cnr Pittwater Rd & Kentwell Rd,North Manly,NSW,2100,,20% off,20% off standard tennis court hire,,,,,,,,,,,,,,,"Only available when booking at courts or via phone. Excludes specials, gift cards and other offers.",,,0
110,Vumbaca Fruit Market,Vumbaca Fruit Market,,,Grocery,",auto repairs,Fresh,Fruit,Repco servicing,Veg",9971 9363,22 Howard Ave,Dee Why,NSW,2099,,10% off,10% off fruit & veg,,,,,,,,,,,,,,,"Excludes Wholesale, Box Sales, specials, gift cards and other offers",,,0
111,Warringah Florist,Warringah Florist,,,Shopping,"burgers,Flowers,Funerals,ribs,steaks,Weddings",9948 0555,3335 Condamine St,Manly Vale,NSW,2093,,20% off,20% off,,"Excludes interflora, petals and delivery",,,,,,,,,,,,,"Excludes interflora, petals, delivery, specials and other offers.",,,0
112,Wholey Mackerel Seafood's Forestway,Wholey Mackerel Seafood's Forestway,,,Grocery,"Burgers,Fish,Fresh,meat rolls,Mussels,Prawns",9451 9962,Forestway Shopping Centre,Frenchs forest,NSW,2086,,10% off,10% off in-store purchases,,,,,,,,,,,,,,,"Excludes specials, gift cards and other offers.",,,0
113,Wonders Toy Shop,Wonders Toy Shop,,,Shopping,"burgers,coffee,drinks,kids,presents,toys",9939 2469,9 Lawrence St,Freshwater,NSW,2096,,15% off,15% off beach toys,,,10% off storewide including specials,,,,,,,,,,,,Excludes gift cards and other offers.,,,0
114,Yogurtland Manly111,Yogurtland Manly111,,,Cafe & Takeaway,"Cream,desserts,Frozen Yoghurt,Ice,ice-cream",9976 6270,The Corso,Manly,NSW,2095,,20% off,20% off 1 cup of yogurt,,Limit one cup per day,,,,,,,,,,,,,"Excludes specials, gift cards and other offers",,,0
