
Import Errors: 

 Row 2: Cannot add data. Error in category/subcategory. Category is required field.
 Row 2: Cannot add data. Error in category/subcategory. Category is required field.
 Row 2: Cannot add data. Error in category/subcategory. Category is required field.