Import Errors: 

 Row 2: success, yes
 Row 3: success, yes
 Row 4: success, yes
 Row 5: success, yes
 Row 6: success, yes
 Row 7: success, yes
 Row 8: success, yes
 Row 9: success, yes
 Row 10: success, yes
 Row 11: success, yes